{
  "Intersections": [
    {
      "IntersectionID": 0,
      "Position": {
        "X": -500,
        "Y": -500
      },
      "Roads": [
        {
          "SegmentID": 0,
          "SignalID": -1
        },
        {
          "SegmentID": 5,
          "SignalID": -1
        }
      ]
    },
    {
      "IntersectionID": 1,
      "Position": {
        "X": -400,
        "Y": -500
      },
      "Roads": [
        {
          "SegmentID": 9,
          "SignalID": -1
        },
        {
          "SegmentID": 1,
          "SignalID": -1
        },
        {
          "SegmentID": 0,
          "SignalID": -1
        }
      ]
    },
    {
      "IntersectionID": 2,
      "Position": {
        "X": -300,
        "Y": -500
      },
      "Roads": [
        {
          "SegmentID": 6,
          "SignalID": -1
        },
        {
          "SegmentID": 4,
          "SignalID": -1
        },
        {
          "SegmentID": 9,
          "SignalID": -1
        }
      ]
    },
    {
      "IntersectionID": 3,
      "Position": {
        "X": -200,
        "Y": -500
      },
      "Roads": [
        {
          "SegmentID": 7,
          "SignalID": -1
        },
        {
          "SegmentID": 10,
          "SignalID": -1
        },
        {
          "SegmentID": 6,
          "SignalID": -1
        }
      ]
    },
    {
      "IntersectionID": 4,
      "Position": {
        "X": -100,
        "Y": -500
      },
      "Roads": [
        {
          "SegmentID": 8,
          "SignalID": -1
        },
        {
          "SegmentID": 11,
          "SignalID": -1
        },
        {
          "SegmentID": 7,
          "SignalID": -1
        }
      ]
    },
    {
      "IntersectionID": 5,
      "Position": {
        "X": 0,
        "Y": -500
      },
      "Roads": [
        {
          "SegmentID": 12,
          "SignalID": -1
        },
        {
          "SegmentID": 13,
          "SignalID": -1
        },
        {
          "SegmentID": 8,
          "SignalID": -1
        }
      ]
    },
    {
      "IntersectionID": 6,
      "Position": {
        "X": 100,
        "Y": -500
      },
      "Roads": [
        {
          "SegmentID": 14,
          "SignalID": -1
        },
        {
          "SegmentID": 15,
          "SignalID": -1
        },
        {
          "SegmentID": 12,
          "SignalID": -1
        }
      ]
    },
    {
      "IntersectionID": 7,
      "Position": {
        "X": 200,
        "Y": -500
      },
      "Roads": [
        {
          "SegmentID": 16,
          "SignalID": -1
        },
        {
          "SegmentID": 17,
          "SignalID": -1
        },
        {
          "SegmentID": 14,
          "SignalID": -1
        }
      ]
    },
    {
      "IntersectionID": 8,
      "Position": {
        "X": 300,
        "Y": -500
      },
      "Roads": [
        {
          "SegmentID": 18,
          "SignalID": -1
        },
        {
          "SegmentID": 19,
          "SignalID": -1
        },
        {
          "SegmentID": 16,
          "SignalID": -1
        }
      ]
    },
    {
      "IntersectionID": 9,
      "Position": {
        "X": 400,
        "Y": -500
      },
      "Roads": [
        {
          "SegmentID": 20,
          "SignalID": -1
        },
        {
          "SegmentID": 21,
          "SignalID": -1
        },
        {
          "SegmentID": 18,
          "SignalID": -1
        }
      ]
    },
    {
      "IntersectionID": 10,
      "Position": {
        "X": 500,
        "Y": -500
      },
      "Roads": [
        {
          "SegmentID": 22,
          "SignalID": -1
        },
        {
          "SegmentID": 20,
          "SignalID": -1
        }
      ]
    },
    {
      "IntersectionID": 11,
      "Position": {
        "X": -500,
        "Y": -300
      },
      "Roads": [
        {
          "SegmentID": 3,
          "SignalID": -1
        },
        {
          "SegmentID": 23,
          "SignalID": -1
        },
        {
          "SegmentID": 5,
          "SignalID": -1
        }
      ]
    },
    {
      "IntersectionID": 12,
      "Position": {
        "X": -400,
        "Y": -300
      },
      "Roads": [
        {
          "SegmentID": 2,
          "SignalID": 90
        },
        {
          "SegmentID": 24,
          "SignalID": 88
        },
        {
          "SegmentID": 3,
          "SignalID": 91
        },
        {
          "SegmentID": 1,
          "SignalID": 89
        }
      ]
    },
    {
      "IntersectionID": 13,
      "Position": {
        "X": -300,
        "Y": -300
      },
      "Roads": [
        {
          "SegmentID": 25,
          "SignalID": 98
        },
        {
          "SegmentID": 26,
          "SignalID": 92
        },
        {
          "SegmentID": 2,
          "SignalID": 99
        },
        {
          "SegmentID": 4,
          "SignalID": 93
        }
      ]
    },
    {
      "IntersectionID": 14,
      "Position": {
        "X": -200,
        "Y": -300
      },
      "Roads": [
        {
          "SegmentID": 27,
          "SignalID": 126
        },
        {
          "SegmentID": 28,
          "SignalID": 124
        },
        {
          "SegmentID": 25,
          "SignalID": 127
        },
        {
          "SegmentID": 10,
          "SignalID": 125
        }
      ]
    },
    {
      "IntersectionID": 15,
      "Position": {
        "X": -100,
        "Y": -300
      },
      "Roads": [
        {
          "SegmentID": 29,
          "SignalID": 68
        },
        {
          "SegmentID": 30,
          "SignalID": 64
        },
        {
          "SegmentID": 27,
          "SignalID": 69
        },
        {
          "SegmentID": 11,
          "SignalID": 65
        }
      ]
    },
    {
      "IntersectionID": 16,
      "Position": {
        "X": 0,
        "Y": -300
      },
      "Roads": [
        {
          "SegmentID": 31,
          "SignalID": 70
        },
        {
          "SegmentID": 32,
          "SignalID": 66
        },
        {
          "SegmentID": 29,
          "SignalID": 71
        },
        {
          "SegmentID": 13,
          "SignalID": 67
        }
      ]
    },
    {
      "IntersectionID": 17,
      "Position": {
        "X": 100,
        "Y": -300
      },
      "Roads": [
        {
          "SegmentID": 33,
          "SignalID": -1
        },
        {
          "SegmentID": 34,
          "SignalID": -1
        },
        {
          "SegmentID": 35,
          "SignalID": -1
        },
        {
          "SegmentID": 31,
          "SignalID": -1
        },
        {
          "SegmentID": 15,
          "SignalID": -1
        }
      ]
    },
    {
      "IntersectionID": 18,
      "Position": {
        "X": 200,
        "Y": -300
      },
      "Roads": [
        {
          "SegmentID": 36,
          "SignalID": 6
        },
        {
          "SegmentID": 37,
          "SignalID": 4
        },
        {
          "SegmentID": 33,
          "SignalID": 7
        },
        {
          "SegmentID": 17,
          "SignalID": 5
        }
      ]
    },
    {
      "IntersectionID": 19,
      "Position": {
        "X": 300,
        "Y": -300
      },
      "Roads": [
        {
          "SegmentID": 38,
          "SignalID": 104
        },
        {
          "SegmentID": 39,
          "SignalID": 96
        },
        {
          "SegmentID": 36,
          "SignalID": 105
        },
        {
          "SegmentID": 19,
          "SignalID": 97
        }
      ]
    },
    {
      "IntersectionID": 20,
      "Position": {
        "X": 400,
        "Y": -300
      },
      "Roads": [
        {
          "SegmentID": 40,
          "SignalID": 14
        },
        {
          "SegmentID": 41,
          "SignalID": 12
        },
        {
          "SegmentID": 38,
          "SignalID": 15
        },
        {
          "SegmentID": 21,
          "SignalID": 13
        }
      ]
    },
    {
      "IntersectionID": 21,
      "Position": {
        "X": 500,
        "Y": -300
      },
      "Roads": [
        {
          "SegmentID": 42,
          "SignalID": -1
        },
        {
          "SegmentID": 40,
          "SignalID": -1
        },
        {
          "SegmentID": 22,
          "SignalID": -1
        }
      ]
    },
    {
      "IntersectionID": 22,
      "Position": {
        "X": -500,
        "Y": -100
      },
      "Roads": [
        {
          "SegmentID": 43,
          "SignalID": -1
        },
        {
          "SegmentID": 44,
          "SignalID": -1
        },
        {
          "SegmentID": 23,
          "SignalID": -1
        }
      ]
    },
    {
      "IntersectionID": 23,
      "Position": {
        "X": -400,
        "Y": -100
      },
      "Roads": [
        {
          "SegmentID": 45,
          "SignalID": 10
        },
        {
          "SegmentID": 46,
          "SignalID": 8
        },
        {
          "SegmentID": 43,
          "SignalID": 11
        },
        {
          "SegmentID": 24,
          "SignalID": 9
        }
      ]
    },
    {
      "IntersectionID": 24,
      "Position": {
        "X": -300,
        "Y": -100
      },
      "Roads": [
        {
          "SegmentID": 47,
          "SignalID": 52
        },
        {
          "SegmentID": 48,
          "SignalID": 40
        },
        {
          "SegmentID": 45,
          "SignalID": 53
        },
        {
          "SegmentID": 26,
          "SignalID": 41
        }
      ]
    },
    {
      "IntersectionID": 25,
      "Position": {
        "X": -200,
        "Y": -100
      },
      "Roads": [
        {
          "SegmentID": 49,
          "SignalID": 80
        },
        {
          "SegmentID": 47,
          "SignalID": 76
        },
        {
          "SegmentID": 28,
          "SignalID": 81
        },
        {
          "SegmentID": 30,
          "SignalID": 77
        }
      ]
    },
    {
      "IntersectionID": 26,
      "Position": {
        "X": -100,
        "Y": -100
      },
      "Roads": null
    },
    {
      "IntersectionID": 27,
      "Position": {
        "X": 0,
        "Y": -100
      },
      "Roads": null
    },
    {
      "IntersectionID": 28,
      "Position": {
        "X": 100,
        "Y": -100
      },
      "Roads": [
        {
          "SegmentID": 50,
          "SignalID": 28
        },
        {
          "SegmentID": 51,
          "SignalID": 20
        },
        {
          "SegmentID": 52,
          "SignalID": 29
        },
        {
          "SegmentID": 34,
          "SignalID": 21
        }
      ]
    },
    {
      "IntersectionID": 29,
      "Position": {
        "X": 200,
        "Y": -100
      },
      "Roads": [
        {
          "SegmentID": 53,
          "SignalID": 114
        },
        {
          "SegmentID": 54,
          "SignalID": 112
        },
        {
          "SegmentID": 50,
          "SignalID": 115
        },
        {
          "SegmentID": 37,
          "SignalID": 113
        }
      ]
    },
    {
      "IntersectionID": 30,
      "Position": {
        "X": 300,
        "Y": -100
      },
      "Roads": [
        {
          "SegmentID": 55,
          "SignalID": 54
        },
        {
          "SegmentID": 56,
          "SignalID": 44
        },
        {
          "SegmentID": 53,
          "SignalID": 55
        },
        {
          "SegmentID": 39,
          "SignalID": 45
        }
      ]
    },
    {
      "IntersectionID": 31,
      "Position": {
        "X": 400,
        "Y": -100
      },
      "Roads": [
        {
          "SegmentID": 57,
          "SignalID": 62
        },
        {
          "SegmentID": 58,
          "SignalID": 58
        },
        {
          "SegmentID": 55,
          "SignalID": 63
        },
        {
          "SegmentID": 41,
          "SignalID": 59
        }
      ]
    },
    {
      "IntersectionID": 32,
      "Position": {
        "X": 500,
        "Y": -100
      },
      "Roads": [
        {
          "SegmentID": 59,
          "SignalID": -1
        },
        {
          "SegmentID": 57,
          "SignalID": -1
        },
        {
          "SegmentID": 42,
          "SignalID": -1
        }
      ]
    },
    {
      "IntersectionID": 33,
      "Position": {
        "X": -500,
        "Y": 100
      },
      "Roads": [
        {
          "SegmentID": 60,
          "SignalID": -1
        },
        {
          "SegmentID": 61,
          "SignalID": -1
        },
        {
          "SegmentID": 44,
          "SignalID": -1
        }
      ]
    },
    {
      "IntersectionID": 34,
      "Position": {
        "X": -400,
        "Y": 100
      },
      "Roads": [
        {
          "SegmentID": 62,
          "SignalID": 42
        },
        {
          "SegmentID": 63,
          "SignalID": 32
        },
        {
          "SegmentID": 60,
          "SignalID": 43
        },
        {
          "SegmentID": 46,
          "SignalID": 33
        }
      ]
    },
    {
      "IntersectionID": 35,
      "Position": {
        "X": -300,
        "Y": 100
      },
      "Roads": [
        {
          "SegmentID": 64,
          "SignalID": 74
        },
        {
          "SegmentID": 65,
          "SignalID": 72
        },
        {
          "SegmentID": 62,
          "SignalID": 75
        },
        {
          "SegmentID": 48,
          "SignalID": 73
        }
      ]
    },
    {
      "IntersectionID": 36,
      "Position": {
        "X": -200,
        "Y": 100
      },
      "Roads": [
        {
          "SegmentID": 66,
          "SignalID": -1
        },
        {
          "SegmentID": 67,
          "SignalID": -1
        },
        {
          "SegmentID": 64,
          "SignalID": -1
        },
        {
          "SegmentID": 49,
          "SignalID": -1
        },
        {
          "SegmentID": 32,
          "SignalID": -1
        }
      ]
    },
    {
      "IntersectionID": 37,
      "Position": {
        "X": -100,
        "Y": 100
      },
      "Roads": [
        {
          "SegmentID": 68,
          "SignalID": 102
        },
        {
          "SegmentID": 69,
          "SignalID": 94
        },
        {
          "SegmentID": 66,
          "SignalID": 103
        },
        {
          "SegmentID": 35,
          "SignalID": 95
        }
      ]
    },
    {
      "IntersectionID": 38,
      "Position": {
        "X": 0,
        "Y": 100
      },
      "Roads": [
        {
          "SegmentID": 70,
          "SignalID": 46
        },
        {
          "SegmentID": 71,
          "SignalID": 34
        },
        {
          "SegmentID": 68,
          "SignalID": 47
        },
        {
          "SegmentID": 52,
          "SignalID": 35
        }
      ]
    },
    {
      "IntersectionID": 39,
      "Position": {
        "X": 100,
        "Y": 100
      },
      "Roads": [
        {
          "SegmentID": 72,
          "SignalID": 24
        },
        {
          "SegmentID": 73,
          "SignalID": 16
        },
        {
          "SegmentID": 70,
          "SignalID": 25
        },
        {
          "SegmentID": 51,
          "SignalID": 17
        }
      ]
    },
    {
      "IntersectionID": 40,
      "Position": {
        "X": 200,
        "Y": 100
      },
      "Roads": [
        {
          "SegmentID": 74,
          "SignalID": 30
        },
        {
          "SegmentID": 75,
          "SignalID": 22
        },
        {
          "SegmentID": 72,
          "SignalID": 31
        },
        {
          "SegmentID": 54,
          "SignalID": 23
        }
      ]
    },
    {
      "IntersectionID": 41,
      "Position": {
        "X": 300,
        "Y": 100
      },
      "Roads": [
        {
          "SegmentID": 76,
          "SignalID": 86
        },
        {
          "SegmentID": 77,
          "SignalID": 84
        },
        {
          "SegmentID": 74,
          "SignalID": 87
        },
        {
          "SegmentID": 56,
          "SignalID": 85
        }
      ]
    },
    {
      "IntersectionID": 42,
      "Position": {
        "X": 400,
        "Y": 100
      },
      "Roads": [
        {
          "SegmentID": 78,
          "SignalID": 60
        },
        {
          "SegmentID": 79,
          "SignalID": 56
        },
        {
          "SegmentID": 76,
          "SignalID": 61
        },
        {
          "SegmentID": 58,
          "SignalID": 57
        }
      ]
    },
    {
      "IntersectionID": 43,
      "Position": {
        "X": 500,
        "Y": 100
      },
      "Roads": [
        {
          "SegmentID": 80,
          "SignalID": -1
        },
        {
          "SegmentID": 78,
          "SignalID": -1
        },
        {
          "SegmentID": 59,
          "SignalID": -1
        }
      ]
    },
    {
      "IntersectionID": 44,
      "Position": {
        "X": -500,
        "Y": 300
      },
      "Roads": [
        {
          "SegmentID": 81,
          "SignalID": -1
        },
        {
          "SegmentID": 82,
          "SignalID": -1
        },
        {
          "SegmentID": 61,
          "SignalID": -1
        }
      ]
    },
    {
      "IntersectionID": 45,
      "Position": {
        "X": -400,
        "Y": 300
      },
      "Roads": [
        {
          "SegmentID": 83,
          "SignalID": 48
        },
        {
          "SegmentID": 84,
          "SignalID": 36
        },
        {
          "SegmentID": 81,
          "SignalID": 49
        },
        {
          "SegmentID": 63,
          "SignalID": 37
        }
      ]
    },
    {
      "IntersectionID": 46,
      "Position": {
        "X": -300,
        "Y": 300
      },
      "Roads": [
        {
          "SegmentID": 85,
          "SignalID": 120
        },
        {
          "SegmentID": 86,
          "SignalID": 116
        },
        {
          "SegmentID": 83,
          "SignalID": 121
        },
        {
          "SegmentID": 65,
          "SignalID": 117
        }
      ]
    },
    {
      "IntersectionID": 47,
      "Position": {
        "X": -200,
        "Y": 300
      },
      "Roads": [
        {
          "SegmentID": 87,
          "SignalID": 110
        },
        {
          "SegmentID": 88,
          "SignalID": 108
        },
        {
          "SegmentID": 85,
          "SignalID": 111
        },
        {
          "SegmentID": 67,
          "SignalID": 109
        }
      ]
    },
    {
      "IntersectionID": 48,
      "Position": {
        "X": -100,
        "Y": 300
      },
      "Roads": [
        {
          "SegmentID": 89,
          "SignalID": 50
        },
        {
          "SegmentID": 90,
          "SignalID": 38
        },
        {
          "SegmentID": 87,
          "SignalID": 51
        },
        {
          "SegmentID": 69,
          "SignalID": 39
        }
      ]
    },
    {
      "IntersectionID": 49,
      "Position": {
        "X": 0,
        "Y": 300
      },
      "Roads": [
        {
          "SegmentID": 91,
          "SignalID": 122
        },
        {
          "SegmentID": 92,
          "SignalID": 118
        },
        {
          "SegmentID": 89,
          "SignalID": 123
        },
        {
          "SegmentID": 71,
          "SignalID": 119
        }
      ]
    },
    {
      "IntersectionID": 50,
      "Position": {
        "X": 100,
        "Y": 300
      },
      "Roads": [
        {
          "SegmentID": 93,
          "SignalID": 26
        },
        {
          "SegmentID": 94,
          "SignalID": 18
        },
        {
          "SegmentID": 91,
          "SignalID": 27
        },
        {
          "SegmentID": 73,
          "SignalID": 19
        }
      ]
    },
    {
      "IntersectionID": 51,
      "Position": {
        "X": 200,
        "Y": 300
      },
      "Roads": [
        {
          "SegmentID": 95,
          "SignalID": 82
        },
        {
          "SegmentID": 96,
          "SignalID": 78
        },
        {
          "SegmentID": 93,
          "SignalID": 83
        },
        {
          "SegmentID": 75,
          "SignalID": 79
        }
      ]
    },
    {
      "IntersectionID": 52,
      "Position": {
        "X": 300,
        "Y": 300
      },
      "Roads": [
        {
          "SegmentID": 97,
          "SignalID": 106
        },
        {
          "SegmentID": 98,
          "SignalID": 100
        },
        {
          "SegmentID": 95,
          "SignalID": 107
        },
        {
          "SegmentID": 77,
          "SignalID": 101
        }
      ]
    },
    {
      "IntersectionID": 53,
      "Position": {
        "X": 400,
        "Y": 300
      },
      "Roads": [
        {
          "SegmentID": 99,
          "SignalID": 2
        },
        {
          "SegmentID": 100,
          "SignalID": 0
        },
        {
          "SegmentID": 97,
          "SignalID": 3
        },
        {
          "SegmentID": 79,
          "SignalID": 1
        }
      ]
    },
    {
      "IntersectionID": 54,
      "Position": {
        "X": 500,
        "Y": 300
      },
      "Roads": [
        {
          "SegmentID": 101,
          "SignalID": -1
        },
        {
          "SegmentID": 99,
          "SignalID": -1
        },
        {
          "SegmentID": 80,
          "SignalID": -1
        }
      ]
    },
    {
      "IntersectionID": 55,
      "Position": {
        "X": -500,
        "Y": 500
      },
      "Roads": [
        {
          "SegmentID": 102,
          "SignalID": -1
        },
        {
          "SegmentID": 82,
          "SignalID": -1
        }
      ]
    },
    {
      "IntersectionID": 56,
      "Position": {
        "X": -400,
        "Y": 500
      },
      "Roads": [
        {
          "SegmentID": 103,
          "SignalID": -1
        },
        {
          "SegmentID": 102,
          "SignalID": -1
        },
        {
          "SegmentID": 84,
          "SignalID": -1
        }
      ]
    },
    {
      "IntersectionID": 57,
      "Position": {
        "X": -300,
        "Y": 500
      },
      "Roads": [
        {
          "SegmentID": 104,
          "SignalID": -1
        },
        {
          "SegmentID": 103,
          "SignalID": -1
        },
        {
          "SegmentID": 86,
          "SignalID": -1
        }
      ]
    },
    {
      "IntersectionID": 58,
      "Position": {
        "X": -200,
        "Y": 500
      },
      "Roads": [
        {
          "SegmentID": 105,
          "SignalID": -1
        },
        {
          "SegmentID": 104,
          "SignalID": -1
        },
        {
          "SegmentID": 88,
          "SignalID": -1
        }
      ]
    },
    {
      "IntersectionID": 59,
      "Position": {
        "X": -100,
        "Y": 500
      },
      "Roads": [
        {
          "SegmentID": 106,
          "SignalID": -1
        },
        {
          "SegmentID": 105,
          "SignalID": -1
        },
        {
          "SegmentID": 90,
          "SignalID": -1
        }
      ]
    },
    {
      "IntersectionID": 60,
      "Position": {
        "X": 0,
        "Y": 500
      },
      "Roads": [
        {
          "SegmentID": 107,
          "SignalID": -1
        },
        {
          "SegmentID": 106,
          "SignalID": -1
        },
        {
          "SegmentID": 92,
          "SignalID": -1
        }
      ]
    },
    {
      "IntersectionID": 61,
      "Position": {
        "X": 100,
        "Y": 500
      },
      "Roads": [
        {
          "SegmentID": 108,
          "SignalID": -1
        },
        {
          "SegmentID": 107,
          "SignalID": -1
        },
        {
          "SegmentID": 94,
          "SignalID": -1
        }
      ]
    },
    {
      "IntersectionID": 62,
      "Position": {
        "X": 200,
        "Y": 500
      },
      "Roads": [
        {
          "SegmentID": 109,
          "SignalID": -1
        },
        {
          "SegmentID": 108,
          "SignalID": -1
        },
        {
          "SegmentID": 96,
          "SignalID": -1
        }
      ]
    },
    {
      "IntersectionID": 63,
      "Position": {
        "X": 300,
        "Y": 500
      },
      "Roads": [
        {
          "SegmentID": 110,
          "SignalID": -1
        },
        {
          "SegmentID": 109,
          "SignalID": -1
        },
        {
          "SegmentID": 98,
          "SignalID": -1
        }
      ]
    },
    {
      "IntersectionID": 64,
      "Position": {
        "X": 400,
        "Y": 500
      },
      "Roads": [
        {
          "SegmentID": 111,
          "SignalID": -1
        },
        {
          "SegmentID": 110,
          "SignalID": -1
        },
        {
          "SegmentID": 100,
          "SignalID": -1
        }
      ]
    },
    {
      "IntersectionID": 65,
      "Position": {
        "X": 500,
        "Y": 500
      },
      "Roads": [
        {
          "SegmentID": 111,
          "SignalID": -1
        },
        {
          "SegmentID": 101,
          "SignalID": -1
        }
      ]
    }
  ],
  "RoadSegments": [
    {
      "SegmentID": 0,
      "Length": 100,
      "IntersectionIDs": [
        0,
        1
      ]
    },
    {
      "SegmentID": 9,
      "Length": 100,
      "IntersectionIDs": [
        1,
        2
      ]
    },
    {
      "SegmentID": 6,
      "Length": 100,
      "IntersectionIDs": [
        2,
        3
      ]
    },
    {
      "SegmentID": 7,
      "Length": 100,
      "IntersectionIDs": [
        3,
        4
      ]
    },
    {
      "SegmentID": 8,
      "Length": 100,
      "IntersectionIDs": [
        4,
        5
      ]
    },
    {
      "SegmentID": 12,
      "Length": 100,
      "IntersectionIDs": [
        5,
        6
      ]
    },
    {
      "SegmentID": 14,
      "Length": 100,
      "IntersectionIDs": [
        6,
        7
      ]
    },
    {
      "SegmentID": 16,
      "Length": 100,
      "IntersectionIDs": [
        7,
        8
      ]
    },
    {
      "SegmentID": 18,
      "Length": 100,
      "IntersectionIDs": [
        8,
        9
      ]
    },
    {
      "SegmentID": 20,
      "Length": 100,
      "IntersectionIDs": [
        9,
        10
      ]
    },
    {
      "SegmentID": 3,
      "Length": 100,
      "IntersectionIDs": [
        11,
        12
      ]
    },
    {
      "SegmentID": 2,
      "Length": 100,
      "IntersectionIDs": [
        12,
        13
      ]
    },
    {
      "SegmentID": 25,
      "Length": 100,
      "IntersectionIDs": [
        13,
        14
      ]
    },
    {
      "SegmentID": 27,
      "Length": 100,
      "IntersectionIDs": [
        14,
        15
      ]
    },
    {
      "SegmentID": 29,
      "Length": 100,
      "IntersectionIDs": [
        15,
        16
      ]
    },
    {
      "SegmentID": 31,
      "Length": 100,
      "IntersectionIDs": [
        16,
        17
      ]
    },
    {
      "SegmentID": 33,
      "Length": 100,
      "IntersectionIDs": [
        17,
        18
      ]
    },
    {
      "SegmentID": 36,
      "Length": 100,
      "IntersectionIDs": [
        18,
        19
      ]
    },
    {
      "SegmentID": 38,
      "Length": 100,
      "IntersectionIDs": [
        19,
        20
      ]
    },
    {
      "SegmentID": 40,
      "Length": 100,
      "IntersectionIDs": [
        20,
        21
      ]
    },
    {
      "SegmentID": 43,
      "Length": 100,
      "IntersectionIDs": [
        22,
        23
      ]
    },
    {
      "SegmentID": 45,
      "Length": 100,
      "IntersectionIDs": [
        23,
        24
      ]
    },
    {
      "SegmentID": 47,
      "Length": 100,
      "IntersectionIDs": [
        24,
        25
      ]
    },
    {
      "SegmentID": 50,
      "Length": 100,
      "IntersectionIDs": [
        28,
        29
      ]
    },
    {
      "SegmentID": 53,
      "Length": 100,
      "IntersectionIDs": [
        29,
        30
      ]
    },
    {
      "SegmentID": 55,
      "Length": 100,
      "IntersectionIDs": [
        30,
        31
      ]
    },
    {
      "SegmentID": 57,
      "Length": 100,
      "IntersectionIDs": [
        31,
        32
      ]
    },
    {
      "SegmentID": 60,
      "Length": 100,
      "IntersectionIDs": [
        33,
        34
      ]
    },
    {
      "SegmentID": 62,
      "Length": 100,
      "IntersectionIDs": [
        34,
        35
      ]
    },
    {
      "SegmentID": 64,
      "Length": 100,
      "IntersectionIDs": [
        35,
        36
      ]
    },
    {
      "SegmentID": 66,
      "Length": 100,
      "IntersectionIDs": [
        36,
        37
      ]
    },
    {
      "SegmentID": 68,
      "Length": 100,
      "IntersectionIDs": [
        37,
        38
      ]
    },
    {
      "SegmentID": 70,
      "Length": 100,
      "IntersectionIDs": [
        38,
        39
      ]
    },
    {
      "SegmentID": 72,
      "Length": 100,
      "IntersectionIDs": [
        39,
        40
      ]
    },
    {
      "SegmentID": 74,
      "Length": 100,
      "IntersectionIDs": [
        40,
        41
      ]
    },
    {
      "SegmentID": 76,
      "Length": 100,
      "IntersectionIDs": [
        41,
        42
      ]
    },
    {
      "SegmentID": 78,
      "Length": 100,
      "IntersectionIDs": [
        42,
        43
      ]
    },
    {
      "SegmentID": 81,
      "Length": 100,
      "IntersectionIDs": [
        44,
        45
      ]
    },
    {
      "SegmentID": 83,
      "Length": 100,
      "IntersectionIDs": [
        45,
        46
      ]
    },
    {
      "SegmentID": 85,
      "Length": 100,
      "IntersectionIDs": [
        46,
        47
      ]
    },
    {
      "SegmentID": 87,
      "Length": 100,
      "IntersectionIDs": [
        47,
        48
      ]
    },
    {
      "SegmentID": 89,
      "Length": 100,
      "IntersectionIDs": [
        48,
        49
      ]
    },
    {
      "SegmentID": 91,
      "Length": 100,
      "IntersectionIDs": [
        49,
        50
      ]
    },
    {
      "SegmentID": 93,
      "Length": 100,
      "IntersectionIDs": [
        50,
        51
      ]
    },
    {
      "SegmentID": 95,
      "Length": 100,
      "IntersectionIDs": [
        51,
        52
      ]
    },
    {
      "SegmentID": 97,
      "Length": 100,
      "IntersectionIDs": [
        52,
        53
      ]
    },
    {
      "SegmentID": 99,
      "Length": 100,
      "IntersectionIDs": [
        53,
        54
      ]
    },
    {
      "SegmentID": 102,
      "Length": 100,
      "IntersectionIDs": [
        55,
        56
      ]
    },
    {
      "SegmentID": 103,
      "Length": 100,
      "IntersectionIDs": [
        56,
        57
      ]
    },
    {
      "SegmentID": 104,
      "Length": 100,
      "IntersectionIDs": [
        57,
        58
      ]
    },
    {
      "SegmentID": 105,
      "Length": 100,
      "IntersectionIDs": [
        58,
        59
      ]
    },
    {
      "SegmentID": 106,
      "Length": 100,
      "IntersectionIDs": [
        59,
        60
      ]
    },
    {
      "SegmentID": 107,
      "Length": 100,
      "IntersectionIDs": [
        60,
        61
      ]
    },
    {
      "SegmentID": 108,
      "Length": 100,
      "IntersectionIDs": [
        61,
        62
      ]
    },
    {
      "SegmentID": 109,
      "Length": 100,
      "IntersectionIDs": [
        62,
        63
      ]
    },
    {
      "SegmentID": 110,
      "Length": 100,
      "IntersectionIDs": [
        63,
        64
      ]
    },
    {
      "SegmentID": 111,
      "Length": 100,
      "IntersectionIDs": [
        64,
        65
      ]
    },
    {
      "SegmentID": 5,
      "Length": 200,
      "IntersectionIDs": [
        0,
        11
      ]
    },
    {
      "SegmentID": 23,
      "Length": 200,
      "IntersectionIDs": [
        11,
        22
      ]
    },
    {
      "SegmentID": 44,
      "Length": 200,
      "IntersectionIDs": [
        22,
        33
      ]
    },
    {
      "SegmentID": 61,
      "Length": 200,
      "IntersectionIDs": [
        33,
        44
      ]
    },
    {
      "SegmentID": 82,
      "Length": 200,
      "IntersectionIDs": [
        44,
        55
      ]
    },
    {
      "SegmentID": 1,
      "Length": 200,
      "IntersectionIDs": [
        1,
        12
      ]
    },
    {
      "SegmentID": 24,
      "Length": 200,
      "IntersectionIDs": [
        12,
        23
      ]
    },
    {
      "SegmentID": 46,
      "Length": 200,
      "IntersectionIDs": [
        23,
        34
      ]
    },
    {
      "SegmentID": 63,
      "Length": 200,
      "IntersectionIDs": [
        34,
        45
      ]
    },
    {
      "SegmentID": 84,
      "Length": 200,
      "IntersectionIDs": [
        45,
        56
      ]
    },
    {
      "SegmentID": 4,
      "Length": 200,
      "IntersectionIDs": [
        2,
        13
      ]
    },
    {
      "SegmentID": 26,
      "Length": 200,
      "IntersectionIDs": [
        13,
        24
      ]
    },
    {
      "SegmentID": 48,
      "Length": 200,
      "IntersectionIDs": [
        24,
        35
      ]
    },
    {
      "SegmentID": 65,
      "Length": 200,
      "IntersectionIDs": [
        35,
        46
      ]
    },
    {
      "SegmentID": 86,
      "Length": 200,
      "IntersectionIDs": [
        46,
        57
      ]
    },
    {
      "SegmentID": 10,
      "Length": 200,
      "IntersectionIDs": [
        3,
        14
      ]
    },
    {
      "SegmentID": 28,
      "Length": 200,
      "IntersectionIDs": [
        14,
        25
      ]
    },
    {
      "SegmentID": 49,
      "Length": 200,
      "IntersectionIDs": [
        25,
        36
      ]
    },
    {
      "SegmentID": 67,
      "Length": 200,
      "IntersectionIDs": [
        36,
        47
      ]
    },
    {
      "SegmentID": 88,
      "Length": 200,
      "IntersectionIDs": [
        47,
        58
      ]
    },
    {
      "SegmentID": 11,
      "Length": 200,
      "IntersectionIDs": [
        4,
        15
      ]
    },
    {
      "SegmentID": 69,
      "Length": 200,
      "IntersectionIDs": [
        37,
        48
      ]
    },
    {
      "SegmentID": 90,
      "Length": 200,
      "IntersectionIDs": [
        48,
        59
      ]
    },
    {
      "SegmentID": 13,
      "Length": 200,
      "IntersectionIDs": [
        5,
        16
      ]
    },
    {
      "SegmentID": 71,
      "Length": 200,
      "IntersectionIDs": [
        38,
        49
      ]
    },
    {
      "SegmentID": 92,
      "Length": 200,
      "IntersectionIDs": [
        49,
        60
      ]
    },
    {
      "SegmentID": 15,
      "Length": 200,
      "IntersectionIDs": [
        6,
        17
      ]
    },
    {
      "SegmentID": 34,
      "Length": 200,
      "IntersectionIDs": [
        17,
        28
      ]
    },
    {
      "SegmentID": 51,
      "Length": 200,
      "IntersectionIDs": [
        28,
        39
      ]
    },
    {
      "SegmentID": 73,
      "Length": 200,
      "IntersectionIDs": [
        39,
        50
      ]
    },
    {
      "SegmentID": 94,
      "Length": 200,
      "IntersectionIDs": [
        50,
        61
      ]
    },
    {
      "SegmentID": 17,
      "Length": 200,
      "IntersectionIDs": [
        7,
        18
      ]
    },
    {
      "SegmentID": 37,
      "Length": 200,
      "IntersectionIDs": [
        18,
        29
      ]
    },
    {
      "SegmentID": 54,
      "Length": 200,
      "IntersectionIDs": [
        29,
        40
      ]
    },
    {
      "SegmentID": 75,
      "Length": 200,
      "IntersectionIDs": [
        40,
        51
      ]
    },
    {
      "SegmentID": 96,
      "Length": 200,
      "IntersectionIDs": [
        51,
        62
      ]
    },
    {
      "SegmentID": 19,
      "Length": 200,
      "IntersectionIDs": [
        8,
        19
      ]
    },
    {
      "SegmentID": 39,
      "Length": 200,
      "IntersectionIDs": [
        19,
        30
      ]
    },
    {
      "SegmentID": 56,
      "Length": 200,
      "IntersectionIDs": [
        30,
        41
      ]
    },
    {
      "SegmentID": 77,
      "Length": 200,
      "IntersectionIDs": [
        41,
        52
      ]
    },
    {
      "SegmentID": 98,
      "Length": 200,
      "IntersectionIDs": [
        52,
        63
      ]
    },
    {
      "SegmentID": 21,
      "Length": 200,
      "IntersectionIDs": [
        9,
        20
      ]
    },
    {
      "SegmentID": 41,
      "Length": 200,
      "IntersectionIDs": [
        20,
        31
      ]
    },
    {
      "SegmentID": 58,
      "Length": 200,
      "IntersectionIDs": [
        31,
        42
      ]
    },
    {
      "SegmentID": 79,
      "Length": 200,
      "IntersectionIDs": [
        42,
        53
      ]
    },
    {
      "SegmentID": 100,
      "Length": 200,
      "IntersectionIDs": [
        53,
        64
      ]
    },
    {
      "SegmentID": 22,
      "Length": 200,
      "IntersectionIDs": [
        10,
        21
      ]
    },
    {
      "SegmentID": 42,
      "Length": 200,
      "IntersectionIDs": [
        21,
        32
      ]
    },
    {
      "SegmentID": 59,
      "Length": 200,
      "IntersectionIDs": [
        32,
        43
      ]
    },
    {
      "SegmentID": 80,
      "Length": 200,
      "IntersectionIDs": [
        43,
        54
      ]
    },
    {
      "SegmentID": 101,
      "Length": 200,
      "IntersectionIDs": [
        54,
        65
      ]
    },
    {
      "SegmentID": 30,
      "Length": 223.60679774997897,
      "IntersectionIDs": [
        25,
        15
      ]
    },
    {
      "SegmentID": 52,
      "Length": 223.60679774997897,
      "IntersectionIDs": [
        38,
        28
      ]
    },
    {
      "SegmentID": 32,
      "Length": 447.21359549995793,
      "IntersectionIDs": [
        36,
        16
      ]
    },
    {
      "SegmentID": 35,
      "Length": 447.21359549995793,
      "IntersectionIDs": [
        37,
        17
      ]
    }
  ]
}